…
nyc_clean <- nyc_clean %>%
  mutate(Entry = ifelse(Entry == "YES", TRUE, FALSE))

dim(nyc_clean) 
```

    ## [1] 1868   19

``` r
# Display (rows x columns) of the cleaned dataset

print(nyc_clean)
```

    ## # A tibble: 1,868 × 19
    ##    Line     `Station Name` `Station Latitude` `Station Longitude` Route1 Route2
    ##    <chr>    <chr>                       <dbl>               <dbl> <chr>  <chr> 
    ##  1 4 Avenue 25th St                      40.7               -74.0 R      <NA>  
    ##  2 4 Avenue 25th St                      40.7               -74.0 R      <NA>  
    ##  3 4 Avenue 36th St                      40.7               -74.0 N      R     
    ##  4 4 Avenue 36th St                      40.7               -74.0 N      R     
    ##  5 4 Avenue 36th St                      40.7               -74.0 N      R     
    ##  6 4 Avenue 45th St                      40.6               -74.0 R      <NA>  
    ##  7 4 Avenue 45th St                      40.6               -74.0 R      <NA>  
    ##  8 4 Avenue 45th St                      40.6               -74.0 R      <NA>  
    ##  9 4 Avenue 45th St                      40.6               -74.0 R      <NA>  
    ## 10 4 Avenue 53rd St                      40.6               -74.0 R      <NA>  
    ## # ℹ 1,858 more rows
    ## # ℹ 13 more variables: Route3 <chr>, Route4 <chr>, Route5 <chr>, Route6 <chr>,
    ## #   Route7 <chr>, Route8 <dbl>, Route9 <dbl>, Route10 <dbl>, Route11 <dbl>,
    ## #   `Entrance Type` <chr>, Entry <lgl>, Vending <chr>, ADA <lgl>
…
Import, clean, and organize the data for Professor Trash Wheel

``` r
prof_trash_wheel <- read_excel("./Trash Wheel Collection Data.xlsx", sheet = "Professor Trash Wheel")%>%
  janitor::clean_names()
prof_trash_wheel_cleaned <- prof_trash_wheel %>%
  filter(!is.na(dumpster))%>% 
    mutate(year = as.character(year))
  
prof_trash_wheel_cleaned 
```

    ## # A tibble: 106 × 13
    ##    dumpster month    year  date                weight_tons volume_cubic_yards
    ##       <dbl> <chr>    <chr> <dttm>                    <dbl>              <dbl>
    ##  1        1 January  2017  2017-01-02 00:00:00        1.79                 15
    ##  2        2 January  2017  2017-01-30 00:00:00        1.58                 15
    ##  3        3 February 2017  2017-02-26 00:00:00        2.32                 18
    ##  4        4 February 2017  2017-02-26 00:00:00        3.72                 15
    ##  5        5 February 2017  2017-02-28 00:00:00        1.45                 15
    ##  6        6 March    2017  2017-03-30 00:00:00        1.71                 15
    ##  7        7 April    2017  2017-04-01 00:00:00        1.82                 15
    ##  8        8 April    2017  2017-04-20 00:00:00        2.37                 15
    ##  9        9 May      2017  2017-05-10 00:00:00        2.64                 15
    ## 10       10 May      2017  2017-05-26 00:00:00        2.78                 15
    ## # ℹ 96 more rows
    ## # ℹ 7 more variables: plastic_bottles <dbl>, polystyrene <dbl>,
    ## #   cigarette_butts <dbl>, glass_bottles <dbl>, plastic_bags <dbl>,
    ## #   wrappers <dbl>, homes_powered <dbl>

Import, clean, and organize the data for Gwynnda Trash Wheel

``` r
gwy_trash_wheel <- read_excel("./Trash Wheel Collection Data.xlsx", sheet = "Gwynnda Trash Wheel")%>%
  janitor::clean_names()

gwy_trash_wheel_cleaned <- gwy_trash_wheel %>%
  filter(!is.na(dumpster))%>% 
    mutate(year = as.character(year))
gwy_trash_wheel_cleaned  
```

    ## # A tibble: 155 × 12
    ##    dumpster month  year  date                weight_tons volume_cubic_yards
    ##       <dbl> <chr>  <chr> <dttm>                    <dbl>              <dbl>
    ##  1        1 July   2021  2021-07-03 00:00:00        0.93                 15
    ##  2        2 July   2021  2021-07-07 00:00:00        2.26                 15
    ##  3        3 July   2021  2021-07-07 00:00:00        1.62                 15
    ##  4        4 July   2021  2021-07-16 00:00:00        1.76                 15
    ##  5        5 July   2021  2021-07-30 00:00:00        1.53                 15
    ##  6        6 August 2021  2021-08-11 00:00:00        2.06                 15
    ##  7        7 August 2021  2021-08-14 00:00:00        1.9                  15
    ##  8        8 August 2021  2021-08-16 00:00:00        2.16                 15
    ##  9        9 August 2021  2021-08-16 00:00:00        2.6                  15
    ## 10       10 August 2021  2021-08-17 00:00:00        3.21                 15
    ## # ℹ 145 more rows
    ## # ℹ 6 more variables: plastic_bottles <dbl>, polystyrene <dbl>,
    ## #   cigarette_butts <dbl>, plastic_bags <dbl>, wrappers <dbl>,
    ## #   homes_powered <dbl>
…
# During doing this csv file, the most important thing is to know which is the data we need and try to collect them. Before doing all the programming, I observed these files first, to know the key variables. When I try to combine the "result" file, I met some problems due to the very first two empty rows. After skip the unnecessary data, I changed all the names into the same ones, which make these files can merge correctly. Also, after ran the final file, I deleted the useless columns. The final data I had, is combined with the most useful parts, including the Series, Episode, Baker, Signature Bake, Show Stopper, technical and result.
```

Answer questions for Q3

``` r
star_baker <- final_data %>%
  filter(Series >= 5 & Series <= 10, result == "STAR BAKER" | result == "WINNER") %>%
  select(Series, Episode, Baker, result)

star_baker %>%
  arrange(Series, Episode, Baker, result)
```

    ## # A tibble: 40 × 4
    ##    Series Episode Baker   result    
    ##     <dbl>   <dbl> <chr>   <chr>     
    ##  1      5       1 Nancy   STAR BAKER
    ##  2      5       2 Richard STAR BAKER
    ##  3      5       3 Luis    STAR BAKER
    ##  4      5       4 Richard STAR BAKER
    ##  5      5       5 Kate    STAR BAKER
    ##  6      5       6 Chetna  STAR BAKER
    ##  7      5       7 Richard STAR BAKER
    ##  8      5       8 Richard STAR BAKER
    ##  9      5       9 Richard STAR BAKER
    ## 10      5      10 Nancy   WINNER    
    ## # ℹ 30 more rows
…
